%YAML 1.1
%TAG !u! tag:unity3d.com,2011:
--- !u!1 &6250287478986273217
GameObject:
  m_ObjectHideFlags: 0
  m_CorrespondingSourceObject: {fileID: 0}
  m_PrefabInstance: {fileID: 0}
  m_PrefabAsset: {fileID: 0}
  serializedVersion: 6
  m_Component:
  - component: {fileID: 3174547003712603246}
  - component: {fileID: 1353575157656466574}
  m_Layer: 31
  m_Name: MapChip
  m_TagString: Untagged
  m_Icon: {fileID: 0}
  m_NavMeshLayer: 0
  m_StaticEditorFlags: 0
  m_IsActive: 1
--- !u!4 &3174547003712603246
Transform:
  m_ObjectHideFlags: 0
  m_CorrespondingSourceObject: {fileID: 0}
  m_PrefabInstance: {fileID: 0}
  m_PrefabAsset: {fileID: 0}
  m_GameObject: {fileID: 6250287478986273217}
  m_LocalRotation: {x: 0, y: 0, z: 0, w: 1}
  m_LocalPosition: {x: 0, y: 0, z: 0}
  m_LocalScale: {x: 1, y: 1, z: 1}
  m_Children:
  - {fileID: 381913362259364942}
  m_Father: {fileID: 0}
  m_RootOrder: 0
  m_LocalEulerAnglesHint: {x: 0, y: 0, z: 0}
--- !u!156049354 &1353575157656466574
Grid:
  m_ObjectHideFlags: 0
  m_CorrespondingSourceObject: {fileID: 0}
  m_PrefabInstance: {fileID: 0}
  m_PrefabAsset: {fileID: 0}
  m_GameObject: {fileID: 6250287478986273217}
  m_Enabled: 1
  m_CellSize: {x: 1, y: 1, z: 0}
  m_CellGap: {x: 0, y: 0, z: 0}
  m_CellLayout: 0
  m_CellSwizzle: 0
--- !u!1 &7941253570848577744
GameObject:
  m_ObjectHideFlags: 0
  m_CorrespondingSourceObject: {fileID: 0}
  m_PrefabInstance: {fileID: 0}
  m_PrefabAsset: {fileID: 0}
  serializedVersion: 6
  m_Component:
  - component: {fileID: 381913362259364942}
  - component: {fileID: 3603591825626248420}
  - component: {fileID: 6555660284547290854}
  m_Layer: 31
  m_Name: Layer1
  m_TagString: Untagged
  m_Icon: {fileID: 0}
  m_NavMeshLayer: 0
  m_StaticEditorFlags: 0
  m_IsActive: 1
--- !u!4 &381913362259364942
Transform:
  m_ObjectHideFlags: 0
  m_CorrespondingSourceObject: {fileID: 0}
  m_PrefabInstance: {fileID: 0}
  m_PrefabAsset: {fileID: 0}
  m_GameObject: {fileID: 7941253570848577744}
  m_LocalRotation: {x: -0, y: -0, z: -0, w: 1}
  m_LocalPosition: {x: 0, y: 0, z: 0}
  m_LocalScale: {x: 1, y: 1, z: 1}
  m_Children: []
  m_Father: {fileID: 3174547003712603246}
  m_RootOrder: 0
  m_LocalEulerAnglesHint: {x: 0, y: 0, z: 0}
--- !u!1839735485 &3603591825626248420
Tilemap:
  m_ObjectHideFlags: 0
  m_CorrespondingSourceObject: {fileID: 0}
  m_PrefabInstance: {fileID: 0}
  m_PrefabAsset: {fileID: 0}
  m_GameObject: {fileID: 7941253570848577744}
  m_Enabled: 1
  m_Tiles:
  - first: {x: -1, y: -4, z: 0}
    second:
      m_TileIndex: 15
      m_TileSpriteIndex: 15
      m_TileMatrixIndex: 0
      m_TileColorIndex: 0
      m_ObjectToInstantiate: {fileID: 0}
      m_TileFlags: 1
      m_ColliderType: 1
  - first: {x: 0, y: -4, z: 0}
    second:
      m_TileIndex: 16
      m_TileSpriteIndex: 16
      m_TileMatrixIndex: 0
      m_TileColorIndex: 0
      m_ObjectToInstantiate: {fileID: 0}
      m_TileFlags: 1
      m_ColliderType: 1
  - first: {x: 1, y: -4, z: 0}
    second:
      m_TileIndex: 17
      m_TileSpriteIndex: 17
      m_TileMatrixIndex: 0
      m_TileColorIndex: 0
      m_ObjectToInstantiate: {fileID: 0}
      m_TileFlags: 1
      m_ColliderType: 1
  - first: {x: 2, y: -4, z: 0}
    second:
      m_TileIndex: 18
      m_TileSpriteIndex: 18
      m_TileMatrixIndex: 0
      m_TileColorIndex: 0
      m_ObjectToInstantiate: {fileID: 0}
      m_TileFlags: 1
      m_ColliderType: 1
  - first: {x: -1, y: -3, z: 0}
    second:
      m_TileIndex: 12
      m_TileSpriteIndex: 12
      m_TileMatrixIndex: 0
      m_TileColorIndex: 0
      m_ObjectToInstantiate: {fileID: 0}
      m_TileFlags: 1
      m_ColliderType: 1
  - first: {x: 0, y: -3, z: 0}
    second:
      m_TileIndex: 13
      m_TileSpriteIndex: 13
      m_TileMatrixIndex: 0
      m_TileColorIndex: 0
      m_ObjectToInstantiate: {fileID: 0}
      m_TileFlags: 1
      m_ColliderType: 1
  - first: {x: 1, y: -3, z: 0}
    second:
      m_TileIndex: 14
      m_TileSpriteIndex: 14
      m_TileMatrixIndex: 0
      m_TileColorIndex: 0
      m_ObjectToInstantiate: {fileID: 0}
      m_TileFlags: 1
      m_ColliderType: 1
  - first: {x: -1, y: -2, z: 0}
    second:
      m_TileIndex: 9
      m_TileSpriteIndex: 9
      m_TileMatrixIndex: 0
      m_TileColorIndex: 0
      m_ObjectToInstantiate: {fileID: 0}
      m_TileFlags: 1
      m_ColliderType: 1
  - first: {x: 0, y: -2, z: 0}
    second:
      m_TileIndex: 10
      m_TileSpriteIndex: 10
      m_TileMatrixIndex: 0
      m_TileColorIndex: 0
      m_ObjectToInstantiate: {fileID: 0}
      m_TileFlags: 1
      m_ColliderType: 1
  - first: {x: 1, y: -2, z: 0}
    second:
      m_TileIndex: 11
      m_TileSpriteIndex: 11
      m_TileMatrixIndex: 0
      m_TileColorIndex: 0
      m_ObjectToInstantiate: {fileID: 0}
      m_TileFlags: 1
      m_ColliderType: 1
  - first: {x: -1, y: -1, z: 0}
    second:
      m_TileIndex: 5
      m_TileSpriteIndex: 5
      m_TileMatrixIndex: 0
      m_TileColorIndex: 0
      m_ObjectToInstantiate: {fileID: 0}
      m_TileFlags: 1
      m_ColliderType: 1
  - first: {x: 0, y: -1, z: 0}
    second:
      m_TileIndex: 6
      m_TileSpriteIndex: 6
      m_TileMatrixIndex: 0
      m_TileColorIndex: 0
      m_ObjectToInstantiate: {fileID: 0}
      m_TileFlags: 1
      m_ColliderType: 1
  - first: {x: 1, y: -1, z: 0}
    second:
      m_TileIndex: 7
      m_TileSpriteIndex: 7
      m_TileMatrixIndex: 0
      m_TileColorIndex: 0
      m_ObjectToInstantiate: {fileID: 0}
      m_TileFlags: 1
      m_ColliderType: 1
  - first: {x: 2, y: -1, z: 0}
    second:
      m_TileIndex: 8
      m_TileSpriteIndex: 8
      m_TileMatrixIndex: 0
      m_TileColorIndex: 0
      m_ObjectToInstantiate: {fileID: 0}
      m_TileFlags: 1
      m_ColliderType: 1
  - first: {x: -1, y: 0, z: 0}
    second:
      m_TileIndex: 0
      m_TileSpriteIndex: 0
      m_TileMatrixIndex: 0
      m_TileColorIndex: 0
      m_ObjectToInstantiate: {fileID: 0}
      m_TileFlags: 1
      m_ColliderType: 1
  - first: {x: 0, y: 0, z: 0}
    second:
      m_TileIndex: 1
      m_TileSpriteIndex: 1
      m_TileMatrixIndex: 0
      m_TileColorIndex: 0
      m_ObjectToInstantiate: {fileID: 0}
      m_TileFlags: 1
      m_ColliderType: 1
  - first: {x: 1, y: 0, z: 0}
    second:
      m_TileIndex: 2
      m_TileSpriteIndex: 2
      m_TileMatrixIndex: 0
      m_TileColorIndex: 0
      m_ObjectToInstantiate: {fileID: 0}
      m_TileFlags: 1
      m_ColliderType: 1
  - first: {x: 2, y: 0, z: 0}
    second:
      m_TileIndex: 3
      m_TileSpriteIndex: 3
      m_TileMatrixIndex: 0
      m_TileColorIndex: 0
      m_ObjectToInstantiate: {fileID: 0}
      m_TileFlags: 1
      m_ColliderType: 1
  - first: {x: 3, y: 0, z: 0}
    second:
      m_TileIndex: 4
      m_TileSpriteIndex: 4
      m_TileMatrixIndex: 0
      m_TileColorIndex: 0
      m_ObjectToInstantiate: {fileID: 0}
      m_TileFlags: 1
      m_ColliderType: 1
  m_AnimatedTiles: {}
  m_TileAssetArray:
  - m_RefCount: 1
    m_Data: {fileID: 11400000, guid: 7bac7d4ef9a485042b777d8863a5e668, type: 2}
  - m_RefCount: 1
    m_Data: {fileID: 11400000, guid: 6c95b59189b259b4b9382aef0b31d7fb, type: 2}
  - m_RefCount: 1
    m_Data: {fileID: 11400000, guid: af5fb6dc0f8535a48b990e4a35002289, type: 2}
  - m_RefCount: 1
    m_Data: {fileID: 11400000, guid: 73d58c1225ef21543b8055d4ea4560e9, type: 2}
  - m_RefCount: 1
    m_Data: {fileID: 11400000, guid: 3c67e913741c25d44899c6816244f6fc, type: 2}
  - m_RefCount: 1
    m_Data: {fileID: 11400000, guid: bc2ac58b81893514db5910664a31e6f6, type: 2}
  - m_RefCount: 1
    m_Data: {fileID: 11400000, guid: 9a6d369c44f22ac49b390dfa95defed1, type: 2}
  - m_RefCount: 1
    m_Data: {fileID: 11400000, guid: 6f313351a254c414bb880856b42b61b5, type: 2}
  - m_RefCount: 1
    m_Data: {fileID: 11400000, guid: a8d2b1d0677a5404a9042a4df726194c, type: 2}
  - m_RefCount: 1
    m_Data: {fileID: 11400000, guid: 70e46e16db3a63b4594b012339bbbe65, type: 2}
  - m_RefCount: 1
    m_Data: {fileID: 11400000, guid: edc076b67b54c41468600786b1b034f3, type: 2}
  - m_RefCount: 1
    m_Data: {fileID: 11400000, guid: 3ef13c68af84c814ab0da77b399be3ce, type: 2}
  - m_RefCount: 1
    m_Data: {fileID: 11400000, guid: fea9609a0b04eea43a7791b6486f25b5, type: 2}
  - m_RefCount: 1
    m_Data: {fileID: 11400000, guid: 2fd5e02a3e2d43940a156a1740a54d35, type: 2}
  - m_RefCount: 1
    m_Data: {fileID: 11400000, guid: 54d18ff1930ae6243a839614a7ee56a9, type: 2}
  - m_RefCount: 1
    m_Data: {fileID: 11400000, guid: 960f55a42f25653458e1c0fe553365c6, type: 2}
  - m_RefCount: 1
    m_Data: {fileID: 11400000, guid: 30579adb2565cf341961243947e4d8b6, type: 2}
  - m_RefCount: 1
    m_Data: {fileID: 11400000, guid: 793b722a8f7f87f40a55bd7a2a9e6321, type: 2}
  - m_RefCount: 1
    m_Data: {fileID: 11400000, guid: 7453bc7ef3e4848419ce3dac9dfcfcc8, type: 2}
  m_TileSpriteArray:
  - m_RefCount: 1
    m_Data: {fileID: 21300000, guid: db03143f2463d64469f9943af719b0d5, type: 3}
  - m_RefCount: 1
    m_Data: {fileID: 21300002, guid: db03143f2463d64469f9943af719b0d5, type: 3}
  - m_RefCount: 1
    m_Data: {fileID: 21300004, guid: db03143f2463d64469f9943af719b0d5, type: 3}
  - m_RefCount: 1
    m_Data: {fileID: 21300006, guid: db03143f2463d64469f9943af719b0d5, type: 3}
  - m_RefCount: 1
    m_Data: {fileID: 21300008, guid: db03143f2463d64469f9943af719b0d5, type: 3}
  - m_RefCount: 1
    m_Data: {fileID: 21300010, guid: db03143f2463d64469f9943af719b0d5, type: 3}
  - m_RefCount: 1
    m_Data: {fileID: 21300012, guid: db03143f2463d64469f9943af719b0d5, type: 3}
  - m_RefCount: 1
    m_Data: {fileID: 21300014, guid: db03143f2463d64469f9943af719b0d5, type: 3}
  - m_RefCount: 1
    m_Data: {fileID: 21300016, guid: db03143f2463d64469f9943af719b0d5, type: 3}
  - m_RefCount: 1
    m_Data: {fileID: 21300018, guid: db03143f2463d64469f9943af719b0d5, type: 3}
  - m_RefCount: 1
    m_Data: {fileID: 21300020, guid: db03143f2463d64469f9943af719b0d5, type: 3}
  - m_RefCount: 1
    m_Data: {fileID: 21300022, guid: db03143f2463d64469f9943af719b0d5, type: 3}
  - m_RefCount: 1
    m_Data: {fileID: 21300024, guid: db03143f2463d64469f9943af719b0d5, type: 3}
  - m_RefCount: 1
    m_Data: {fileID: 21300026, guid: db03143f2463d64469f9943af719b0d5, type: 3}
  - m_RefCount: 1
    m_Data: {fileID: 21300028, guid: db03143f2463d64469f9943af719b0d5, type: 3}
  - m_RefCount: 1
    m_Data: {fileID: 21300030, guid: db03143f2463d64469f9943af719b0d5, type: 3}
  - m_RefCount: 1
    m_Data: {fileID: 21300032, guid: db03143f2463d64469f9943af719b0d5, type: 3}
  - m_RefCount: 1
    m_Data: {fileID: 21300034, guid: db03143f2463d64469f9943af719b0d5, type: 3}
  - m_RefCount: 1
    m_Data: {fileID: 21300036, guid: db03143f2463d64469f9943af719b0d5, type: 3}
  m_TileMatrixArray:
  - m_RefCount: 19
    m_Data:
      e00: 1
      e01: 0
      e02: 0
      e03: 0
      e10: 0
      e11: 1
      e12: 0
      e13: 0
      e20: 0
      e21: 0
      e22: 1
      e23: 0
      e30: 0
      e31: 0
      e32: 0
      e33: 1
  m_TileColorArray:
  - m_RefCount: 19
    m_Data: {r: 1, g: 1, b: 1, a: 1}
  m_AnimationFrameRate: 1
  m_Color: {r: 1, g: 1, b: 1, a: 1}
  m_Origin: {x: -1, y: -4, z: 0}
  m_Size: {x: 5, y: 5, z: 1}
  m_TileAnchor: {x: 0.5, y: 0.5, z: 0}
  m_TileOrientation: 0
  m_TileOrientationMatrix:
    e00: 1
    e01: 0
    e02: 0
    e03: 0
    e10: 0
    e11: 1
    e12: 0
    e13: 0
    e20: 0
    e21: 0
    e22: 1
    e23: 0
    e30: 0
    e31: 0
    e32: 0
    e33: 1
--- !u!483693784 &6555660284547290854
TilemapRenderer:
  m_ObjectHideFlags: 0
  m_CorrespondingSourceObject: {fileID: 0}
  m_PrefabInstance: {fileID: 0}
  m_PrefabAsset: {fileID: 0}
  m_GameObject: {fileID: 7941253570848577744}
  m_Enabled: 0
  m_CastShadows: 0
  m_ReceiveShadows: 0
  m_DynamicOccludee: 0
  m_MotionVectors: 1
  m_LightProbeUsage: 0
  m_ReflectionProbeUsage: 0
  m_RenderingLayerMask: 1
  m_RendererPriority: 0
  m_Materials:
  - {fileID: 10754, guid: 0000000000000000f000000000000000, type: 0}
  m_StaticBatchInfo:
    firstSubMesh: 0
    subMeshCount: 0
  m_StaticBatchRoot: {fileID: 0}
  m_ProbeAnchor: {fileID: 0}
  m_LightProbeVolumeOverride: {fileID: 0}
  m_ScaleInLightmap: 1
  m_PreserveUVs: 0
  m_IgnoreNormalsForChartDetection: 0
  m_ImportantGI: 0
  m_StitchLightmapSeams: 0
  m_SelectedEditorRenderState: 0
  m_MinimumChartSize: 4
  m_AutoUVMaxDistance: 0.5
  m_AutoUVMaxAngle: 89
  m_LightmapParameters: {fileID: 0}
  m_SortingLayerID: 0
  m_SortingLayer: 0
  m_SortingOrder: 0
  m_ChunkSize: {x: 32, y: 32, z: 32}
  m_ChunkCullingBounds: {x: 0, y: 0, z: 0}
  m_MaxChunkCount: 16
  m_MaxFrameAge: 16
  m_SortOrder: 0
  m_Mode: 0
  m_DetectChunkCullingBounds: 0
  m_MaskInteraction: 0
--- !u!114 &114333678752885298
MonoBehaviour:
  m_ObjectHideFlags: 0
  m_CorrespondingSourceObject: {fileID: 0}
  m_PrefabInstance: {fileID: 0}
  m_PrefabAsset: {fileID: 0}
  m_GameObject: {fileID: 0}
  m_Enabled: 1
  m_EditorHideFlags: 0
  m_Script: {fileID: 12395, guid: 0000000000000000e000000000000000, type: 0}
  m_Name: Palette Settings
  m_EditorClassIdentifier: 
  cellSizing: 0
