%YAML 1.1
%TAG !u! tag:unity3d.com,2011:
--- !u!1045 &1
EditorBuildSettings:
  m_ObjectHideFlags: 0
  serializedVersion: 2
  m_Scenes:
  - enabled: 0
    path: Assets/roomba2d.unity
    guid: b5b658defe55d9641b5b13e50d8f93c6
  - enabled: 0
    path: Assets/Scenes/Tarupagu/UI/UI.unity
    guid: fce677f7f0e2f8e46b8fc24de72b320e
  - enabled: 1
    path: Assets/Scenes/MainGame.unity
    guid: 1c6e67eca09219a4684bd6eaf2bddfc9
  - enabled: 1
    path: Assets/Scenes/Tarupagu/Title/Result.unity
    guid: bb0dbd6c627064f4eb6592856d23aefa
  m_configObjects: {}
